tezt/_regressions/protocol.alpha.period.out

./tezos-codec encode alpha.period from '"2789"'
0000000000000ae5

./tezos-codec decode alpha.period from 0000000000000ae5
"2789"

./tezos-codec encode alpha.period from '"0"'
0000000000000000

./tezos-codec decode alpha.period from 0000000000000000
"0"
